<?xml version="1.0" encoding="utf-8"?>
<svg version="1.1" id="Layer_1" xmlns="http://www.w3.org/2000/svg" xmlns:xlink="http://www.w3.org/1999/xlink" x="0px" y="0px"
	 width="37px" height="40px" viewBox="-469 491 37 40" style="enable-background:new -469 491 37 40;" xml:space="preserve">

<path fill="#F5F5F5" d="M-450.5,493.5c0.7,0,1.4,0.2,2,0.5l12,6.8c1.2,0.7,2,1.9,2,3.3v13.6c0,1.3-0.7,2.6-2,3.3l-12,6.8c-1.2,0.7-2.6,0.7-3.9,0
	l-12-6.8c-1.2-0.7-2-1.9-2-3.3v-13.6c0-1.3,0.7-2.6,2-3.3l12-6.8C-451.8,493.7-451.1,493.5-450.5,493.5 M-450.5,491
	c-1.2,0-2.2,0.3-3.3,0.9l-12,6.8c-2,1.1-3.3,3.2-3.3,5.5v13.6c0,2.3,1.2,4.3,3.3,5.5l12,6.8c2,1.1,4.5,1.1,6.4,0l12-6.8
	c2-1.1,3.3-3.2,3.3-5.5v-13.6c0-2.3-1.2-4.3-3.3-5.5l-12-6.8C-448.2,491.3-449.3,491-450.5,491z"/>

<g>
	<g>
		<path fill="#F5F5F5" d="M-440.2,501.7h-0.8H-460h-0.8c-1.3,0-2.4,1.1-2.4,2.3v0.8v12.4v0.8c0,1.3,1.1,2.3,2.4,2.3h0.8h18.9h0.8
			c1.3,0,2.4-1.1,2.4-2.3v-0.8v-12.4v-0.8C-437.8,502.7-438.9,501.7-440.2,501.7z M-443,503.3l-7.5,5.8l-7.5-5.8H-443z M-441,518.8
			H-460v-12.9l9.5,7.1l9.5-7.1L-441,518.8L-441,518.8z"/>
	</g>
</g>
</svg>
