<?xml version="1.0" encoding="utf-8"?>
<svg version="1.1" id="Layer_1" xmlns="http://www.w3.org/2000/svg" xmlns:xlink="http://www.w3.org/1999/xlink" x="0px" y="0px"
	 width="37px" height="40px" viewBox="-435 525 37 40" style="enable-background:new -435 525 37 40;" xml:space="preserve">
<path fill="#F5F5F5" d="M-416.5,527.5c0.7,0,1.4,0.2,1.9,0.5l12,6.8c1.2,0.7,1.9,1.9,1.9,3.3v13.6c0,1.4-0.7,2.6-1.9,3.3l-12,6.8
	c-1.2,0.7-2.7,0.7-3.9,0l-12-6.8c-1.2-0.7-1.9-1.9-1.9-3.3v-13.6c0-1.4,0.7-2.6,1.9-3.3l12-6.8
	C-417.9,527.7-417.2,527.5-416.5,527.5 M-416.5,525c-1.1,0-2.3,0.3-3.2,0.9l-12,6.8c-2,1.1-3.2,3.2-3.2,5.5v13.6
	c0,2.3,1.2,4.4,3.2,5.5l12,6.8c2,1.1,4.5,1.1,6.5,0l12-6.8c2-1.1,3.2-3.2,3.2-5.5v-13.6c0-2.3-1.2-4.4-3.2-5.5l-12-6.8
	C-414.2,525.3-415.4,525-416.5,525z"/>
<path fill="#F5F5F5" d="M-407.4,534.8h-18.1c-0.7,0-1.3,0.6-1.3,1.3v17.8c0,0.7,0.6,1.3,1.3,1.3h18.1c0.7,0,1.3-0.6,1.3-1.3v-17.8
	C-406.1,535.4-406.7,534.8-407.4,534.8z M-420.4,552h-3.2v-9.5h3.2V552z M-422,541.2c-1.1,0-1.9-0.9-1.9-1.9s0.9-1.9,1.9-1.9
	c1.1,0,1.9,0.9,1.9,1.9S-420.9,541.2-422,541.2z M-409.4,552h-3.2v-6.4c0-0.5-0.7-1-1.6-1c-1.3,0-1.6,1.7-1.6,2.2v5.1h-3.2v-9.5h3.2
	v2.2c0-1.6,1.4-2.2,3.2-2.2c1.8,0,3.2,1.4,3.2,3.2V552z"/>
</svg>
