<?xml version="1.0" encoding="utf-8"?>
<svg version="1.1" id="Layer_1" xmlns="http://www.w3.org/2000/svg" xmlns:xlink="http://www.w3.org/1999/xlink" x="0px" y="0px"
	 width="37px" height="40px" viewBox="-435 525 37 40" style="enable-background:new -435 525 37 40;" xml:space="preserve">
<path fill="#F5F5F5" d="M-416.5,527.5c0.7,0,1.4,0.2,1.9,0.5l12,6.8c1.2,0.7,1.9,1.9,1.9,3.3v13.6c0,1.4-0.7,2.6-1.9,3.3l-12,6.8
	c-1.2,0.7-2.7,0.7-3.9,0l-12-6.8c-1.2-0.7-1.9-1.9-1.9-3.3v-13.6c0-1.4,0.7-2.6,1.9-3.3l12-6.8
	C-417.9,527.7-417.2,527.5-416.5,527.5 M-416.5,525c-1.1,0-2.3,0.3-3.2,0.9l-12,6.8c-2,1.1-3.2,3.2-3.2,5.5v13.6
	c0,2.3,1.2,4.4,3.2,5.5l12,6.8c2,1.1,4.5,1.1,6.5,0l12-6.8c2-1.1,3.2-3.2,3.2-5.5v-13.6c0-2.3-1.2-4.4-3.2-5.5l-12-6.8
	C-414.2,525.3-415.4,525-416.5,525z"/>
<ellipse fill="#F5F5F5" cx="-421" cy="545" rx="5.2" ry="5.1"/>
<path fill="#F5F5F5" d="M-412,539.9c-2.9,0-5.2,2.3-5.2,5.1c0,2.8,2.3,5.1,5.2,5.1c2.9,0,5.2-2.3,5.2-5.1C-406.8,542.2-409.1,539.9-412,539.9z
	 M-412,547.9c-1.6,0-2.9-1.3-2.9-2.9c0-1.6,1.3-2.9,2.9-2.9c1.6,0,2.9,1.3,2.9,2.9l0,0C-409.1,546.6-410.4,547.9-412,547.9z"/>
</svg>
